<?xml version="1.0" encoding="UTF-8"?>
<glyph name="e" format="2">
	<advance width="400"/>
	<unicode hex="0065"/>
	<note>
		e
	</note>
	<outline>
		<contour>
			<point x="250" y="100" type="line"/>
			<point x="150" y="100" type="line"/>
			<point x="150" y="200" type="line"/>
			<point x="350" y="200" type="line"/>
			<point x="350" y="350" type="line" smooth="yes"/>
			<point x="350" y="432"/>
			<point x="283" y="500"/>
			<point x="200" y="500" type="curve" smooth="yes"/>
			<point x="117" y="500"/>
			<point x="50" y="432"/>
			<point x="50" y="350" type="curve" smooth="yes"/>
			<point x="50" y="150" type="line" smooth="yes"/>
			<point x="50" y="67"/>
			<point x="117" y="0"/>
			<point x="200" y="0" type="curve" smooth="yes"/>
			<point x="250" y="0" type="line"/>
		</contour>
		<contour>
			<point x="250" y="300" type="line"/>
			<point x="150" y="300" type="line"/>
			<point x="150" y="400" type="line"/>
			<point x="250" y="400" type="line"/>
		</contour>
	</outline>
</glyph>
