<?xml version="1.0" encoding="UTF-8"?>
<glyph name="j" format="2">
	<advance width="250"/>
	<unicode hex="006A"/>
	<note>
		j
	</note>
	<outline>
		<contour>
			<point x="100" y="500" type="line"/>
			<point x="100" y="-50" type="line"/>
			<point x="0" y="-50" type="line"/>
			<point x="0" y="-150" type="line"/>
			<point x="50" y="-150" type="line" smooth="yes"/>
			<point x="133" y="-150"/>
			<point x="200" y="-83"/>
			<point x="200" y="0" type="curve" smooth="yes"/>
			<point x="200" y="500" type="line"/>
		</contour>
		<contour>
			<point x="100" y="650" type="line"/>
			<point x="100" y="550" type="line"/>
			<point x="200" y="550" type="line"/>
			<point x="200" y="650" type="line"/>
		</contour>
	</outline>
</glyph>
