<?xml version="1.0" encoding="UTF-8"?>
<glyph name="x" format="2">
	<advance width="400"/>
	<unicode hex="0078"/>
	<note>
		x
	</note>
	<outline>
		<contour>
			<point x="250" y="500" type="line"/>
			<point x="250" y="300" type="line"/>
			<point x="150" y="300" type="line"/>
			<point x="150" y="500" type="line"/>
			<point x="50" y="500" type="line"/>
			<point x="50" y="350" type="line" smooth="yes"/>
			<point x="50" y="312"/>
			<point x="64" y="277"/>
			<point x="88" y="250" type="curve"/>
			<point x="64" y="223"/>
			<point x="50" y="188"/>
			<point x="50" y="150" type="curve" smooth="yes"/>
			<point x="50" y="0" type="line"/>
			<point x="150" y="0" type="line"/>
			<point x="150" y="200" type="line"/>
			<point x="250" y="200" type="line"/>
			<point x="250" y="0" type="line"/>
			<point x="350" y="0" type="line"/>
			<point x="350" y="150" type="line" smooth="yes"/>
			<point x="350" y="188"/>
			<point x="336" y="223"/>
			<point x="312" y="250" type="curve"/>
			<point x="336" y="277"/>
			<point x="350" y="312"/>
			<point x="350" y="350" type="curve" smooth="yes"/>
			<point x="350" y="500" type="line"/>
		</contour>
	</outline>
</glyph>
